,Place,Temp_Jan,Temp_Jul,Language,Altitude,Population,Temp_Jan_cat,Temp_Jul_cat,Tempdiff,Temp_JanF,Temp_JulF,Prec_Jan,Lat,Long
15,Malaga,12.1,25.5,Spanish,11.0,569130.0,Reasonably High,Extremely High,-13.4,53.78,77.9,69.0,36.72,-4.42
3,Athens,9.9,28.5,Greek,338.0,3090508.0,Average,Extremely High,-18.6,49.82,83.3,56.9,37.97,23.72
26,Madrid,6.3,25.6,Spanish,667.0,6240000.0,Average,Extremely High,-19.3,43.34,78.08,,40.43,-3.68
14,Madrid,6.3,25.6,Spanish,667.0,6240000.0,Average,Extremely High,-19.3,43.34,78.08,,40.43,-3.68
11,Istanbul,5.7,22.9,Turkish,39.0,14657434.0,Average,Very High,-17.2,42.260000000000005,73.22,105.0,41.01,28.98
19,Porto,9.5,20.6,Portuguese,0.0,1774000.0,Average,Very High,-11.100000000000001,49.1,69.08,147.1,41.13,-8.67
4,Barcelona,11.8,25.7,Catalan / Spanish,12.0,4740000.0,Reasonably High,Extremely High,-13.899999999999999,53.24,78.25999999999999,43.7,41.38,2.18
25,Rome,7.5,24.1,Italian,21.0,4353775.0,Average,Very High,-16.6,45.5,75.38,66.9,41.89,12.49
21,Rome,7.5,24.1,Italian,21.0,4353775.0,Average,Very High,-16.6,45.5,75.38,66.9,41.89,12.49
0,Ajaccio,9.0,22.9,French,38.0,68587.0,Average,Very High,-13.899999999999999,48.2,73.22,56.7,41.93,8.74
6,Bordeaux,6.6,21.4,French,,851071.0,Average,Very High,-14.799999999999999,43.879999999999995,70.52,87.3,44.84,-0.58
20,Rijeka,5.8,23.1,Croatian,0.0,213666.0,Average,Very High,-17.3,42.44,73.58,128.7,45.33,14.44
23,Venice,3.3,23.0,Italian,1.0,264579.0,Reasonaby Low,Very High,-19.7,37.94,73.4,47.0,45.44,12.33
9,Geneva,1.5,20.2,French,,198072.0,Reasonaby Low,Very High,-18.7,34.7,68.36,76.0,46.2,6.14
16,Munich,0.3,19.4,German,,1450381.0,Reasonaby Low,High,-19.099999999999998,32.54,66.92,48.0,48.15,11.58
24,Vienna,1.2,19.1,German,,2600000.0,Reasonaby Low,High,-17.900000000000002,34.16,66.38,21.3,48.2,16.37
18,Paris,5.0,20.6,French,,10601122.0,Reasonaby Low,Very High,-15.600000000000001,41.0,69.08,53.7,48.86,2.35
12,Lille,3.6,18.6,French,,1015744.0,Reasonaby Low,High,-15.000000000000002,38.48,65.48,60.5,50.64,3.06
2,Antwerp,3.4,18.5,Dutch,,517042.0,Reasonaby Low,High,-15.1,38.12,65.3,69.3,51.22,4.4
7,Cork,5.6,15.3,English,,208669.0,Average,High,-9.700000000000001,42.08,59.540000000000006,131.4,51.9,-8.48
1,Amsterdam,3.4,17.6,Dutch,-2.0,1351587.0,Reasonaby Low,High,-14.200000000000001,38.12,63.68,66.6,52.38,4.9
5,Birmingham,6.7,21.3,English,140.0,2440986.0,Average,Very High,-14.600000000000001,44.06,70.34,73.2,52.48,-1.89
8,Edinburgh,7.0,19.1,English,47.0,1339380.0,Average,High,-12.100000000000001,44.6,66.38,67.5,55.95,-3.19
22,Stockholm,-1.6,18.8,Swedish,0.0,1515017.0,Low,High,-20.400000000000002,29.12,65.84,39.0,59.32,18.07
17,Oslo,-2.9,17.7,Norwegian,23.0,942084.0,Low,High,-20.599999999999998,26.78,63.86,54.9,59.95,10.75
10,Helsinki,-3.9,17.8,Finnish,,1231595.0,Low,High,-21.7,24.98,64.04,52.0,60.17,24.94
13,Lulea,-5.1,20.7,Swedish,6.0,75966.0,Very low,Very High,-25.799999999999997,22.82,69.25999999999999,34.0,65.58,22.15
