﻿ffyear,ffmonth,D12,E12,b/m,tbl,dfy,lty,tms,ntis,infl,ltr,svar,CRSP_SPvwx
1990,1,11.1427,22.47,0.414971396,0.0764,0.0095,0.0865,0.0101,-0.013791937,0.010309278,-0.0343,0.002892101,-0.069407
1990,2,11.2303,22.07,0.40917309,0.0774,0.0092,0.0876,0.0102,-0.011625709,0.004709576,-0.0025,0.001008572,0.008986
1990,3,11.318,21.67,0.471333956,0.079,0.0084,0.0889,0.0099,-0.010275461,0.00546875,-0.0044,0.001032254,0.02436
1990,4,11.433,21.5333,0.480284256,0.0777,0.0084,0.0924,0.0147,-0.010132826,0.001554002,-0.0202,0.000966789,-0.026508
1990,5,11.548,21.3967,0.443569974,0.0774,0.0094,0.0883,0.0109,-0.001961175,0.002327386,0.0415,0.001361474,0.092408
1990,6,11.663,21.26,0.442949432,0.0773,0.0096,0.0864,0.0091,-0.00047416,0.005417957,0.023,0.001350807,-0.008921
1990,7,11.72,21.42,0.439212447,0.0762,0.0096,0.086,0.0098,0.004918902,0.003849115,0.0107,0.001298437,-0.006508
1990,8,11.777,21.58,0.488073563,0.0745,0.01,0.092,0.0175,0.001476804,0.009202454,-0.0419,0.005827787,-0.094897
1990,9,11.834,21.74,0.520289666,0.0736,0.0108,0.0914,0.0178,0.001391613,0.008358663,0.0117,0.001984821,-0.051213
1990,10,11.918,21.6067,0.522451921,0.0717,0.0121,0.0898,0.0181,-0.00045175,0.006028636,0.0215,0.004492789,-0.00611
1990,11,12.002,21.4733,0.498505655,0.0706,0.0132,0.0858,0.0152,0.00092778,0.002247191,0.0402,0.002439904,0.059897
1990,12,12.086,21.34,0.48449686,0.0674,0.0138,0.0844,0.017,-0.001828469,0,0.0187,0.000794597,0.024954
1991,1,12.094,21.2067,0.4663078,0.0622,0.0141,0.0837,0.0215,0.000648772,0.005979073,0.013,0.003193592,0.043063
1991,2,12.102,21.0733,0.442720441,0.0594,0.0124,0.0841,0.0247,0.001178977,0.001485884,0.003,0.002431299,0.067371
1991,3,12.11,20.94,0.4571256,0.0591,0.0116,0.0844,0.0253,0.003262045,0.00148368,0.0038,0.001375058,0.022312
1991,4,12.1223,20.43,0.461239599,0.0565,0.0108,0.0837,0.0272,0.005740771,0.001481482,0.014,0.002072789,0.000214
1991,5,12.1347,19.92,0.439966969,0.0546,0.01,0.0845,0.0299,0.006798781,0.00295858,0,0.001585206,0.038759
1991,6,12.147,19.41,0.458243743,0.0557,0.0095,0.086,0.0303,0.014082172,0.002949853,-0.0063,0.001179879,-0.047498
1991,7,12.1897,18.88,0.440356782,0.0558,0.0089,0.085,0.0292,0.014676843,0.001470588,0.0157,0.001105341,0.044799
1991,8,12.2323,18.35,0.437639637,0.0533,0.009,0.0818,0.0285,0.017176133,0.002936858,0.034,0.002037667,0.019912
1991,9,12.275,17.82,0.441531837,0.0522,0.009,0.079,0.0268,0.022991536,0.004392387,0.0303,0.00047469,-0.019061
1991,10,12.251,17.2033,0.434003454,0.0499,0.0094,0.0791,0.0292,0.025218487,0.001457726,0.0054,0.001125638,0.011899
1991,11,12.227,16.5867,0.46015449,0.0456,0.0097,0.0789,0.0333,0.030383515,0.002911208,0.0082,0.002049026,-0.043973
1991,12,12.203,15.97,0.420344417,0.0407,0.0095,0.073,0.0323,0.031537729,0.000725689,0.0581,0.002049522,0.111476
1992,1,12.2433,16.0433,0.413229679,0.038,0.0093,0.0776,0.0396,0.031664925,0.001450326,-0.0324,0.000872455,-0.019654
1992,2,12.2837,16.1167,0.407630525,0.0384,0.0094,0.0777,0.0393,0.033284242,0.003620565,0.0051,0.000913236,0.009442
1992,3,12.324,16.19,0.402106034,0.0404,0.009,0.0797,0.0393,0.041628264,0.005050505,-0.0094,0.00046976,-0.021873
1992,4,12.3227,16.4767,0.387303472,0.0375,0.0088,0.0803,0.0428,0.038393921,0.00143575,0.0016,0.001661052,0.027157
1992,5,12.3213,16.7633,0.382998516,0.0363,0.0085,0.0781,0.0418,0.037081356,0.001433692,0.0243,0.000690033,0.001087
1992,6,12.32,17.05,0.392042354,0.0366,0.0083,0.0765,0.0399,0.042936625,0.003579098,0.02,0.000752919,-0.017545
1992,7,12.345,17.38,0.3833487,0.0321,0.0077,0.0726,0.0405,0.041361011,0.0021398,0.0398,0.000897481,0.039465
1992,8,12.37,17.71,0.399405037,0.0313,0.007,0.0725,0.0412,0.042827463,0.002846975,0.0067,0.000369559,-0.024214
1992,9,12.395,18.04,0.397656972,0.0291,0.007,0.071,0.0419,0.041134984,0.002838893,0.0185,0.000872212,0.008916
1992,10,12.3917,18.39,0.403251178,0.0286,0.0085,0.0741,0.0455,0.04097304,0.00353857,-0.0198,0.000944149,0.003455
1992,11,12.3883,18.74,0.393626459,0.0313,0.0086,0.0748,0.0435,0.037870724,0.001410437,0.001,0.0005081,0.030069
1992,12,12.385,19.09,0.394109614,0.0322,0.0083,0.0726,0.0404,0.03871373,-0.000704225,0.0246,0.00047154,0.011197
1993,1,12.4163,19.34,0.393048105,0.03,0.0076,0.0725,0.0425,0.041639223,0.004933051,0.028,0.000348846,0.005964
1993,2,12.4477,19.59,0.385960197,0.0293,0.0068,0.0698,0.0405,0.040615568,0.003506311,0.0354,0.001146872,0.010361
1993,3,12.479,19.84,0.333613526,0.0295,0.0057,0.0702,0.0407,0.036995019,0.00349406,0.0021,0.001004723,0.018578
1993,4,12.4937,19.67,0.334349806,0.0287,0.0068,0.0701,0.0414,0.039700073,0.002785515,0.0072,0.001004798,-0.02578
1993,5,12.5083,19.5,0.324882422,0.0296,0.0078,0.0701,0.0405,0.040144274,0.001388889,0.0047,0.000817304,0.022549
1993,6,12.523,19.33,0.325931248,0.0307,0.0074,0.0668,0.0361,0.041047893,0.001386963,0.0449,0.000573817,0.001095
1993,7,12.5217,19.69,0.323777031,0.0304,0.0076,0.0656,0.0352,0.040900205,0,0.0191,0.000608962,-0.005909
1993,8,12.5203,20.05,0.313864983,0.0302,0.0075,0.0623,0.0321,0.040165971,0.002770083,0.0434,0.000281578,0.033957
1993,9,12.519,20.41,0.322351822,0.0295,0.0068,0.0627,0.0332,0.04174737,0.002071823,0.0005,0.000470665,-0.009842
1993,10,12.5383,20.9033,0.311362833,0.0302,0.0064,0.0623,0.0321,0.040380917,0.004135079,0.0096,0.000314205,0.01859
1993,11,12.5577,21.3967,0.311079411,0.031,0.0073,0.0651,0.0341,0.043853595,0.000686342,-0.0259,0.000576328,-0.012084
1993,12,12.577,21.89,0.305267223,0.0306,0.0076,0.0654,0.0348,0.045746805,0,0.002,0.000269686,0.010617
1994,1,12.6203,22.1633,0.288058567,0.0298,0.0073,0.0637,0.0339,0.043688823,0.002743484,0.0257,0.000423486,0.031954
1994,2,12.6637,22.4367,0.299058821,0.0325,0.0068,0.0682,0.0357,0.045059994,0.003419973,-0.045,0.001026088,-0.030121
1994,3,12.707,22.71,0.307483805,0.035,0.0065,0.0725,0.0375,0.041915421,0.003408316,-0.0395,0.000892131,-0.045728
1994,4,12.7497,23.54,0.303664786,0.0368,0.0064,0.0745,0.0377,0.03986253,0.001358696,-0.015,0.001373677,0.011477
1994,5,12.7923,24.37,0.297469476,0.0414,0.0063,0.0759,0.0345,0.039657323,0.000678426,-0.0082,0.000750498,0.012559
1994,6,12.835,25.2,0.308417077,0.0414,0.0068,0.0774,0.036,0.034010352,0.003389831,-0.01,0.000797104,-0.027113
1994,7,12.8643,25.91,0.296985381,0.0433,0.0069,0.0746,0.0313,0.031226051,0.002702703,0.0363,0.00032727,0.031381
1994,8,12.8937,26.62,0.285683819,0.0448,0.0067,0.0761,0.0313,0.028720654,0.004043127,-0.0086,0.000560379,0.03799
1994,9,12.923,27.33,0.290904659,0.0462,0.0064,0.08,0.0338,0.029019116,0.002684564,-0.0331,0.000801876,-0.026238
1994,10,13.0053,28.42,0.286071274,0.0495,0.0063,0.0809,0.0314,0.026015343,0.000669344,-0.0025,0.001158422,0.021043
1994,11,13.0877,29.51,0.298992614,0.0529,0.0064,0.0808,0.0279,0.022930531,0.001337793,0.0066,0.000836383,-0.039423
1994,12,13.17,30.6,0.2915683,0.056,0.0064,0.0799,0.0239,0.016601624,0,0.0161,0.000704927,0.012419
1995,1,13.17,31.25,0.290853734,0.0571,0.0062,0.078,0.0209,0.015099784,0.004008016,0.0273,0.000289389,0.024348
1995,2,13.17,31.9,0.278730036,0.0577,0.0059,0.0758,0.0181,0.014538755,0.003992016,0.0287,0.000472432,0.036328
1995,3,13.17,32.55,0.313876542,0.0573,0.0058,0.0755,0.0182,0.01440318,0.003313453,0.0091,0.000484319,0.027179
1995,4,13.2337,33.1767,0.301994701,0.0565,0.0057,0.0745,0.018,0.013018349,0.00330251,0.0169,0.000256928,0.027914
1995,5,13.2973,33.8033,0.292264254,0.0567,0.0055,0.0677,0.011,0.01074282,0.001974984,0.079,0.001011447,0.036454
1995,6,13.361,34.43,0.286429618,0.0547,0.006,0.067,0.0123,0.0082729,0.001971091,0.0139,0.000696799,0.022198
1995,7,13.4323,34.68,0.277160367,0.0542,0.0063,0.0691,0.0149,0.007059424,0,-0.0168,0.000773225,0.032023
1995,8,13.5037,34.93,0.283046135,0.054,0.0062,0.0674,0.0134,0.009120206,0.002622951,0.0236,0.000206741,0.000642
1995,9,13.575,35.18,0.272494998,0.0528,0.0061,0.0663,0.0135,0.006377414,0.001962067,0.0175,0.00038146,0.040182
1995,10,13.646,34.7733,0.274420245,0.0528,0.0063,0.0641,0.0113,0.01222081,0.003263708,0.0294,0.000487822,-0.004864
1995,11,13.717,34.3667,0.257168852,0.0536,0.0066,0.0623,0.0087,0.016872526,-0.000650618,0.0249,0.000546172,0.041338
1995,12,13.788,33.96,0.255026383,0.0514,0.0067,0.0603,0.0089,0.015528785,-0.000651042,0.0272,0.000820543,0.015809
1996,1,13.8933,33.9867,0.241877172,0.05,0.0066,0.0609,0.0109,0.016129249,0.005863192,-0.0011,0.001383944,0.033415
1996,2,13.9987,34.0133,0.237894737,0.0483,0.0064,0.0659,0.0176,0.016803847,0.003238342,-0.0483,0.001267622,0.007689
1996,3,14.104,34.04,0.239299615,0.0496,0.0068,0.0684,0.0188,0.016894007,0.005164622,-0.021,0.001741708,0.00786
1996,4,14.1603,34.33,0.240075806,0.0495,0.0069,0.0706,0.0211,0.021128804,0.003853565,-0.0165,0.000981834,0.013857
1996,5,14.2167,34.62,0.236923516,0.0502,0.0068,0.0717,0.0215,0.02639601,0.001919386,-0.0054,0.00112531,0.02253
1996,6,14.273,34.91,0.236443725,0.0509,0.0069,0.0703,0.0194,0.027193741,0.00063857,0.0203,0.000394793,0.002562
1996,7,14.4033,35.2733,0.241819894,0.0515,0.007,0.0707,0.0192,0.031112211,0.001914486,0.0018,0.002355153,-0.046048
1996,8,14.5337,35.6367,0.238061118,0.0505,0.0072,0.0726,0.0221,0.030863911,0.001910828,-0.0139,0.001121505,0.019589
1996,9,14.664,36,0.227297318,0.0509,0.0069,0.0704,0.0195,0.029553714,0.00317864,0.029,0.000686235,0.054112
1996,10,14.7423,36.91,0.221747656,0.0499,0.0068,0.0671,0.0172,0.025625898,0.003168568,0.0404,0.000606628,0.025348
1996,11,14.8207,37.82,0.205007919,0.0503,0.0069,0.0643,0.014,0.022039021,0.001895136,0.0351,0.000703722,0.074218
1996,12,14.899,38.73,0.20734273,0.0491,0.0069,0.0673,0.0182,0.024097561,0,-0.0256,0.001709075,-0.021518
1997,1,14.9523,39.2333,0.196240103,0.0503,0.0067,0.0689,0.0186,0.024380134,0.003152585,-0.0079,0.001360087,0.061689
1997,2,15.0057,39.7367,0.194395411,0.0501,0.0063,0.0694,0.0193,0.022885146,0.003142678,0.0005,0.00147476,0.0058
1997,3,15.059,40.24,0.214780202,0.0514,0.0063,0.0723,0.0209,0.021119839,0.002506266,-0.0252,0.002001484,-0.04331
1997,4,15.093,40.3433,0.201741048,0.0516,0.0061,0.0705,0.0189,0.016916109,0.00125,0.0255,0.003005057,0.059016
1997,5,15.127,40.4467,0.192878588,0.0505,0.0062,0.0701,0.0196,0.013265385,-0.00062422,0.0097,0.00200742,0.059272
1997,6,15.161,40.55,0.184287615,0.0493,0.0061,0.0688,0.0195,0.010847478,0.001249219,0.0195,0.001974443,0.042762
1997,7,15.2183,40.58,0.171964943,0.0505,0.0061,0.0637,0.0132,0.011607854,0.001247661,0.0626,0.002010166,0.078977
1997,8,15.2757,40.61,0.185505404,0.0514,0.006,0.0672,0.0158,0.012892189,0.001869159,-0.0317,0.002464728,-0.056458
1997,9,15.333,40.64,0.177967857,0.0495,0.0055,0.0649,0.0154,0.014650639,0.002487562,0.0316,0.002626512,0.052408
1997,10,15.3877,40.3333,0.190000677,0.0497,0.0057,0.0623,0.0126,0.016280535,0.00248139,0.0341,0.009363708,-0.03373
1997,11,15.4423,40.0267,0.180746299,0.0514,0.0055,0.0614,0.01,0.01568624,-0.000618812,0.0148,0.00266212,0.044625
1997,12,15.497,39.72,0.178800884,0.0516,0.0056,0.0602,0.0086,0.015578728,-0.00123839,0.0184,0.002249391,0.0157
1998,1,15.545,39.66,0.178840273,0.0504,0.0058,0.0589,0.0085,0.013758161,0.001859888,0.02,0.00246889,0.01108
1998,2,15.593,39.6,0.165463097,0.0509,0.0058,0.0599,0.009,0.012073518,0.001856436,-0.0072,0.001053364,0.070303
1998,3,15.641,39.54,0.181140396,0.0503,0.006,0.0602,0.0099,0.016505113,0.001852996,0.0025,0.001136788,0.050104
1998,4,15.744,39.35,0.175872922,0.0495,0.0064,0.0604,0.0109,0.016426219,0.001849568,0.0026,0.001614758,0.010232
1998,5,15.847,39.16,0.179102206,0.05,0.0061,0.0592,0.0092,0.019098069,0.001846154,0.0182,0.000958824,-0.019206
1998,6,15.95,38.97,0.178060606,0.0498,0.006,0.0576,0.0078,0.024030588,0.001228501,0.0228,0.00209733,0.0398
1998,7,16.0143,38.6767,0.179438109,0.0496,0.006,0.0584,0.0088,0.025362287,0.001226994,-0.004,0.002228143,-0.011112
1998,8,16.0787,38.3833,0.211432092,0.049,0.0062,0.0547,0.0057,0.028529674,0.00122549,0.0465,0.009334017,-0.144504
1998,9,16.143,38.09,0.203248404,0.0461,0.0069,0.0517,0.0056,0.024092522,0.00122399,0.0395,0.009970951,0.061612
1998,10,16.1603,37.9633,0.185519077,0.0396,0.0081,0.054,0.0144,0.020749215,0.002444988,-0.0218,0.005171595,0.079144
1998,11,16.1777,37.8367,0.174846845,0.0441,0.0093,0.0535,0.0094,0.022012342,0,0.0097,0.001936735,0.060685
1998,12,16.195,37.71,0.173611315,0.0439,0.0101,0.0542,0.0103,0.020063255,-0.000609756,-0.0032,0.003286907,0.058454
1999,1,16.2797,37.9333,0.170320619,0.0434,0.0105,0.0536,0.0102,0.015593995,0.002440513,0.0121,0.003335623,0.042
1999,2,16.3643,38.1567,0.17127681,0.0444,0.0099,0.0587,0.0143,0.018454372,0.001217286,-0.052,0.00348213,-0.033156
1999,3,16.449,38.38,0.172897171,0.0444,0.0091,0.0592,0.0148,0.02067722,0.003039514,-0.0008,0.003213553,0.037774
1999,4,16.4487,39.26,0.156825876,0.0429,0.0084,0.0594,0.0165,0.025189138,0.007272727,0.0021,0.002726647,0.036771
1999,5,16.4483,40.14,0.160231135,0.045,0.0079,0.0615,0.0165,0.025905064,0,-0.0185,0.003085638,-0.024833
1999,6,16.448,41.02,0.154227447,0.0457,0.0079,0.0627,0.017,0.018875065,0,-0.0078,0.002409247,0.053398
1999,7,16.5123,42,0.158796473,0.0455,0.0076,0.0639,0.0184,0.019374153,0.003008424,-0.0077,0.001611182,-0.031084
1999,8,16.5767,42.98,0.156243027,0.0472,0.0075,0.0649,0.0177,0.018889541,0.00239952,-0.0053,0.002729877,-0.006251
1999,9,16.641,43.96,0.163684498,0.0468,0.0081,0.0646,0.0178,0.020390681,0.004787552,0.0084,0.002704945,-0.029257
1999,10,16.658,45.3633,0.157690661,0.0486,0.0083,0.0651,0.0165,0.020456472,0.001786778,-0.0012,0.004875934,0.063512
1999,11,16.675,46.7667,0.155545967,0.0507,0.0079,0.0662,0.0155,0.018290636,0.00059453,-0.0061,0.001354258,0.019547
1999,12,16.692,48.17,0.147167259,0.052,0.0064,0.0682,0.0162,0.017900177,0,-0.0155,0.001148772,0.061549
2000,1,16.7153,49.0967,0.15465416,0.0532,0.0055,0.0666,0.0134,0.025371589,0.002970885,0.0228,0.005206354,-0.050273
2000,2,16.7387,50.0233,0.167056433,0.0555,0.0061,0.0646,0.0091,0.027431874,0.005924171,0.0264,0.003000422,-0.018667
2000,3,16.762,50.95,0.149973562,0.0569,0.0069,0.0618,0.0049,0.018301426,0.008244994,0.0367,0.00667834,0.097434
2000,4,16.7427,51.2733,0.152600418,0.0566,0.0076,0.063,0.0064,0.011961411,0.000584112,-0.0076,0.007941721,-0.032308
2000,5,16.7233,51.5967,0.155668731,0.0579,0.0091,0.064,0.0061,0.009195747,0.001167542,-0.0054,0.005185498,-0.023617
2000,6,16.704,51.92,0.156777962,0.0569,0.0081,0.0622,0.0053,0.007141026,0.005247813,0.0244,0.002359743,0.025497
2000,7,16.585,52.5133,0.155674151,0.0596,0.007,0.0611,0.0015,0.004732995,0.002320186,0.0173,0.002065471,-0.013559
2000,8,16.466,53.1067,0.146053064,0.0609,0.0071,0.0594,-0.0015,0.004689783,0,0.024,0.001039275,0.061275
2000,9,16.347,53.7,0.153789463,0.06,0.0073,0.0612,0.0012,0.004483859,0.005208333,-0.0157,0.001599983,-0.052795
2000,10,16.3217,52.4667,0.149300789,0.0611,0.0079,0.06,-0.0011,0.003758789,0.001727116,0.0187,0.005568073,-0.004829
2000,11,16.2963,51.2333,0.157280893,0.0617,0.0083,0.0576,-0.0041,0.001169766,0.000574713,0.0319,0.003272437,-0.079557
2000,12,16.271,50,0.151851504,0.0577,0.0081,0.0558,-0.0019,-0.002250247,-0.000574383,0.0243,0.005299359,0.004861
2001,1,16.1717,48.48,0.150449666,0.0515,0.0078,0.0562,0.0047,-0.003181137,0.006321839,0.0005,0.004941048,0.031555
2001,2,16.0723,46.96,0.156070091,0.0488,0.0077,0.0549,0.0061,-0.006843598,0.003997716,0.0191,0.002528447,-0.092131
2001,3,15.973,45.44,0.133113551,0.0442,0.0086,0.0559,0.0117,-0.005199539,0.002275313,-0.0074,0.007139632,-0.064587
2001,4,15.8773,42.5567,0.122496901,0.0387,0.0087,0.0593,0.0206,-0.00254076,0.003972758,-0.0313,0.00742621,0.076981
2001,5,15.7817,39.6733,0.120510188,0.0362,0.0078,0.0594,0.0232,-0.000246555,0.004522329,0.0037,0.002536247,0.00533
2001,6,15.686,36.79,0.125209433,0.0349,0.0079,0.059,0.0241,0.005042943,0.001688239,0.0085,0.001508369,-0.025183
2001,7,15.7027,33.9633,0.124966583,0.0351,0.0084,0.0561,0.021,0.007915809,-0.002808989,0.0376,0.002899595,-0.010248
2001,8,15.7193,31.1367,0.132164144,0.0336,0.0083,0.0546,0.021,0.009920493,0,0.0206,0.002221486,-0.064933
2001,9,15.736,28.31,0.148628588,0.0264,0.0086,0.0542,0.0278,0.00865385,0.004507042,0.0081,0.007167587,-0.081352
2001,10,15.7373,27.1033,0.1449014,0.0216,0.0088,0.0506,0.029,0.010751663,-0.003365115,0.0464,0.003249758,0.018546
2001,11,15.7387,25.8967,0.133481367,0.0187,0.0084,0.0553,0.0366,0.011164434,-0.001688239,-0.0471,0.002189351,0.077259
2001,12,15.74,24.69,0.131217846,0.0169,0.0128,0.0575,0.0406,0.013469917,-0.003945885,-0.0183,0.001797955,0.007849
2002,1,15.7367,24.6933,0.132560549,0.0165,0.0132,0.0569,0.0404,0.011195974,0.002263724,0.0138,0.002183889,-0.01532
2002,2,15.7333,24.6967,0.130119086,0.0173,0.0138,0.0563,0.039,0.01250352,0.003952569,0.0115,0.002567832,-0.020973
2002,3,15.73,24.7,0.236833402,0.0179,0.013,0.0604,0.0425,0.013764069,0.005624297,-0.0436,0.002014824,0.03669
2002,4,15.833,25.38,0.247732313,0.0172,0.0127,0.0575,0.0403,0.015112609,0.005592841,0.041,0.002319717,-0.061826
2002,5,15.936,26.06,0.248255614,0.0173,0.0134,0.0578,0.0405,0.022287838,0,0.0015,0.004101625,-0.009438
2002,6,16.039,26.74,0.266572502,0.017,0.0132,0.0566,0.0396,0.027534947,0.000556174,0.0187,0.003707969,-0.072611
2002,7,15.959,27.84,0.282032195,0.0168,0.0137,0.0544,0.0376,0.02845465,0.001111729,0.0303,0.015342791,-0.075074
2002,8,15.879,28.94,0.284411556,0.0162,0.0121,0.051,0.0348,0.024756063,0.003331483,0.0464,0.009409278,0.005401
2002,9,15.799,30.04,0.324555156,0.0163,0.0125,0.048,0.0317,0.029309111,0.00166021,0.0417,0.007366061,-0.110421
2002,10,15.8907,29.2233,0.293437064,0.0158,0.0141,0.0508,0.035,0.025679358,0.001657459,-0.0294,0.011589679,0.087103
2002,11,15.9823,28.4067,0.276975499,0.0123,0.0131,0.0521,0.0398,0.022914967,0,-0.0122,0.004449081,0.057288
2002,12,16.074,27.59,0.295385896,0.0119,0.0124,0.0484,0.0365,0.02573892,-0.002206288,0.0507,0.00263948,-0.060464
2003,1,16.124,28.5,0.305942307,0.0117,0.0118,0.0495,0.0378,0.028296107,0.004422333,-0.0106,0.005167513,-0.02786
2003,2,16.174,29.41,0.312251321,0.0117,0.0111,0.0472,0.0355,0.027918578,0.007705008,0.0329,0.00256416,-0.017225
2003,3,16.224,30.32,0.286117701,0.0113,0.0106,0.0486,0.0373,0.024101489,0.006007646,-0.0135,0.006136133,0.008967
2003,4,16.2043,31.73,0.269654031,0.0113,0.0111,0.0481,0.0368,0.019969985,-0.002171553,0.0102,0.003064828,0.081462
2003,5,16.1847,33.14,0.258375506,0.0107,0.0116,0.0436,0.0329,0.006443411,-0.001632209,0.0592,0.002228351,0.051508
2003,6,16.165,34.55,0.254488337,0.0092,0.0122,0.0452,0.036,0.001255729,0.001089918,-0.0154,0.001997741,0.011351
2003,7,16.3053,35.8933,0.247643335,0.009,0.0113,0.0542,0.0452,0.000265438,0.001088732,-0.0982,0.002046059,0.016505
2003,8,16.4457,37.2367,0.242856073,0.0095,0.0113,0.0532,0.0437,0.002913331,0.003806417,0.0166,0.000966025,0.018014
2003,9,16.586,38.58,0.246541783,0.0094,0.0107,0.049,0.0396,0.007320962,0.003250271,0.0546,0.001869122,-0.012107
2003,10,16.8523,41.9667,0.233308967,0.0092,0.0103,0.0518,0.0426,0.007210141,-0.001079914,-0.0283,0.001407576,0.05397
2003,11,17.1187,45.3533,0.233754152,0.0093,0.0101,0.0519,0.0426,0.010000513,-0.002702703,-0.0027,0.000919633,0.007606
2003,12,17.385,48.74,0.218739865,0.009,0.0098,0.0511,0.0421,0.006946096,-0.001084011,0.0139,0.000893699,0.050107
2004,1,17.598,49.8267,0.218027721,0.0088,0.009,0.0499,0.0411,0.006845821,0.004883342,0.0187,0.000978819,0.017991
2004,2,17.811,50.9133,0.21605322,0.0093,0.0077,0.0483,0.039,0.009326615,0.005399568,0.023,0.000610712,0.012716
2004,3,18.024,52,0.281731466,0.0094,0.0078,0.0474,0.038,0.012245805,0.006444683,0.0141,0.001981263,-0.016267
2004,4,18.2167,53.3833,0.285371867,0.0094,0.0073,0.0531,0.0437,0.01372988,0.003201708,-0.0588,0.001230928,-0.016719
2004,5,18.4093,54.7667,0.286411574,0.0102,0.0071,0.0539,0.0437,0.016286295,0.005851064,-0.0051,0.000977626,0.012024
2004,6,18.602,56.15,0.279631603,0.0127,0.0077,0.0532,0.0405,0.014448301,0.003172924,0.0121,0.000770751,0.018019
2004,7,18.789,56.69,0.28778831,0.0133,0.008,0.0523,0.039,0.014675157,-0.001581444,0.0155,0.000777089,-0.034111
2004,8,18.976,57.23,0.286820616,0.0148,0.0081,0.0493,0.0345,0.014233747,0.000527983,0.0395,0.001442837,0.002019
2004,9,19.163,57.77,0.289485302,0.0165,0.0081,0.0488,0.0323,0.009086066,0.002110818,0.0096,0.00070568,0.009347
2004,10,19.256,58.03,0.291009597,0.0176,0.0074,0.0478,0.0302,0.007381762,0.005265929,0.0154,0.001230487,0.013699
2004,11,19.349,58.29,0.279831646,0.0207,0.0068,0.0502,0.0295,0.012134094,0.000523835,-0.0234,0.0008574,0.035572
2004,12,19.442,58.55,0.270619243,0.0219,0.0068,0.0484,0.0265,0.012960211,-0.003664922,0.025,0.000727843,0.032086
2005,1,19.703,59.1067,0.278179856,0.0233,0.0066,0.0465,0.0232,0.013540097,0.002101944,0.03,0.000821397,-0.024749
2005,2,19.964,59.6633,0.271041024,0.0254,0.0062,0.0479,0.0225,0.011752956,0.005768222,-0.0128,0.000834446,0.019015
2005,3,20.225,60.22,0.319856889,0.0274,0.0066,0.0488,0.0214,0.009090006,0.007820647,-0.0072,0.000859896,-0.018729
2005,4,20.4583,61.2333,0.329624401,0.0278,0.0072,0.0461,0.0183,0.007927809,0.006725298,0.0373,0.001825871,-0.020076
2005,5,20.6917,62.2467,0.320965505,0.0284,0.0086,0.044,0.0156,0.004776868,-0.001027749,0.0297,0.000859393,0.030156
2005,6,20.925,63.26,0.326979057,0.0297,0.009,0.0429,0.0132,0.00536596,0.000514403,0.0167,0.000542133,0.000139
2005,7,21.107,64.33,0.315734275,0.0322,0.0089,0.0456,0.0134,0.004491485,0.004627249,-0.0288,0.000649913,0.036163
2005,8,21.289,65.4,0.320533125,0.0344,0.0087,0.0432,0.0088,0.005417129,0.005117707,0.0333,0.000696701,-0.011265
2005,9,21.471,66.47,0.31789151,0.0342,0.009,0.0464,0.0122,0.006728709,0.012219959,-0.0338,0.000659899,0.006916
2005,10,21.7193,67.59,0.321808187,0.0371,0.0095,0.0484,0.0113,0.005761386,0.002012072,-0.0196,0.001817984,-0.016697
2005,11,21.9677,68.71,0.310914346,0.0388,0.0097,0.0481,0.0093,0.005780327,-0.008032129,0.0076,0.000539896,0.035675
2005,12,22.216,69.83,0.313477957,0.0389,0.0095,0.0461,0.0072,0.003071206,-0.004048583,0.0267,0.000433,-0.001396
2006,1,22.4053,70.7767,0.309226258,0.0424,0.0095,0.0474,0.005,-0.000435712,0.007621951,-0.0118,0.000975388,0.025424
2006,2,22.5947,71.7233,0.305610361,0.0443,0.0092,0.0457,0.0014,0.00204669,0.002017146,0.0238,0.000648551,0.000167
2006,3,22.784,72.67,0.316009441,0.0451,0.0088,0.0507,0.0056,0.002160817,0.005535984,-0.0539,0.000545238,0.011511
2006,4,23.0017,73.2767,0.308841978,0.046,0.0084,0.0532,0.0072,-0.003466348,0.008508509,-0.0247,0.000599801,0.01085
2006,5,23.2193,73.8833,0.314340308,0.0472,0.008,0.0535,0.0063,-0.00264804,0.004962779,0.001,0.001355149,-0.030519
2006,6,23.437,74.49,0.31485029,0.0479,0.0089,0.0531,0.0052,-0.002186473,0.001975309,0.0092,0.002102821,0.000348
2006,7,23.6567,75.85,0.313852175,0.0495,0.0091,0.0518,0.0023,-0.002364212,0.002957122,0.0199,0.001451665,0.00451
2006,8,23.8763,77.21,0.308461799,0.0496,0.0091,0.0496,0,-0.008473302,0.001965602,0.0299,0.000469238,0.021679
2006,9,24.096,78.57,0.300593284,0.0481,0.0092,0.0484,0.0003,-0.009493336,-0.004904365,0.017,0.000513377,0.025296
2006,10,24.3587,79.55,0.290599161,0.0492,0.0091,0.0481,-0.0011,-0.008934735,-0.00542139,0.0077,0.000450577,0.03142
2006,11,24.6213,80.53,0.287241868,0.0494,0.0087,0.0467,-0.0027,-0.015105972,-0.00148662,0.0207,0.000592203,0.015887
2006,12,24.884,81.51,0.2816824,0.0485,0.009,0.0491,0.0006,-0.015031806,0.001488834,-0.0236,0.000357509,0.012294
2007,1,25.0873,82.0567,0.278144211,0.0498,0.0094,0.0502,0.0004,-0.013982546,0.003052527,-0.0102,0.000450485,0.014345
2007,2,25.2907,82.6033,0.286148494,0.0503,0.0089,0.0477,-0.0026,-0.015135616,0.005350368,0.0335,0.001476815,-0.021598
2007,3,25.494,83.15,0.269050014,0.0494,0.0097,0.0493,-0.0001,-0.012480691,0.009105696,-0.0145,0.001587551,0.009679
2007,4,25.7193,83.7402,0.254456169,0.0487,0.0092,0.0489,0.0002,-0.008905072,0.006496163,0.0085,0.000582144,0.042857
2007,5,25.9447,84.3305,0.243911494,0.0473,0.0092,0.051,0.0037,-0.010276261,0.006110719,-0.02,0.00069655,0.032154
2007,6,26.17,84.9207,0.24789561,0.0461,0.0091,0.0521,0.006,-0.011057478,0.001937975,-0.0091,0.001472429,-0.017829
2007,7,26.4393,82.8141,0.251584964,0.0482,0.0092,0.0501,0.0019,-0.015255467,-0.000254377,0.0284,0.002426262,-0.032283
2007,8,26.7087,80.7074,0.248839851,0.042,0.0086,0.0487,0.0067,-0.012193563,-0.001833902,0.0199,0.005134044,0.012859
2007,9,26.978,78.6007,0.239207437,0.0389,0.0085,0.0489,0.01,-0.013010957,0.002755907,0.0012,0.001868431,0.035923
2007,10,27.2293,74.4607,0.23861706,0.039,0.0082,0.048,0.009,-0.017953205,0.002139191,0.0155,0.001682891,0.016292
2007,11,27.4807,70.3207,0.248579692,0.0327,0.0096,0.0445,0.0118,-0.025209935,0.005939618,0.0468,0.00563682,-0.043581
2007,12,27.732,66.1807,0.250582973,0.03,0.0116,0.045,0.015,-0.041591438,-0.000670863,-0.0029,0.002345333,-0.007903
2008,1,27.922,64.2507,0.262754422,0.0275,0.0121,0.0436,0.0161,-0.044186577,0.004970577,0.0213,0.004831799,-0.062332
2008,2,28.112,62.3207,0.270979321,0.0212,0.0129,0.0438,0.0226,-0.050637917,0.002904112,0.0018,0.003225655,-0.033693
2008,3,28.302,60.3907,0.254057567,0.0126,0.0138,0.0432,0.0306,-0.052877042,0.008668213,0.0106,0.006337649,-0.005054
2008,4,28.4387,57.3838,0.243014696,0.0129,0.0142,0.0458,0.0329,-0.049833213,0.006064778,-0.0288,0.002903691,0.04749
2008,5,28.5753,54.3769,0.246510612,0.0173,0.0136,0.0475,0.0302,-0.046380474,0.008420886,-0.0164,0.001640662,0.010708
2008,6,28.712,51.37,0.274491388,0.0186,0.0139,0.046,0.0274,-0.048372532,0.010076997,0.022,0.003425177,-0.084569
2008,7,28.7593,49.5633,0.273815655,0.0163,0.0149,0.0465,0.0302,-0.047946534,0.005251011,-0.0025,0.004465911,-0.008738
2008,8,28.8067,47.7567,0.269889246,0.0172,0.0151,0.0449,0.0277,-0.047450783,-0.003991562,0.0242,0.003447891,0.012682
2008,9,28.854,45.95,0.287123548,0.0113,0.0166,0.0443,0.033,-0.050314112,-0.001383019,0.0112,0.023774695,-0.087287
2008,10,28.6983,35.5933,0.334099374,0.0067,0.026,0.0478,0.0411,-0.057654192,-0.010101333,-0.0383,0.058088493,-0.168455
2008,11,28.5427,25.2367,0.352867356,0.0019,0.0309,0.0372,0.0353,-0.054550718,-0.019152895,0.1443,0.036257085,-0.076514
2008,12,28.387,14.88,0.354984225,0.0003,0.0338,0.0303,0.03,-0.024768004,-0.010342474,0.0967,0.020089947,0.009229
2009,1,28.0097,12.2067,0.38939314,0.0013,0.0309,0.0394,0.0381,-0.025346666,0.004352417,-0.1124,0.011971097,-0.084039
2009,2,27.6323,9.5333,0.441103055,0.003,0.0281,0.0401,0.0371,-0.025259504,0.004972933,-0.0056,0.009961162,-0.107402
2009,3,27.255,6.86,0.296528285,0.0021,0.0292,0.0355,0.0334,-0.037758137,0.002431749,0.0641,0.020364428,0.084154
2009,4,26.7013,7.0767,0.276227578,0.0016,0.03,0.041,0.0394,-0.031360408,0.002496368,-0.0649,0.007551066,0.09255
2009,5,26.1477,7.2933,0.265432048,0.0018,0.0252,0.0432,0.0414,-0.024779038,0.002888764,-0.0248,0.006381091,0.051848
2009,6,25.594,7.51,0.267107849,0.0018,0.0189,0.0429,0.0411,-0.022539012,0.008589892,0.0083,0.003472523,0.00068
2009,7,25.0297,9.1867,0.246004791,0.0018,0.0168,0.043,0.0412,-0.014189596,-0.001585587,0.0019,0.003771153,0.073101
2009,8,24.4653,10.8633,0.23759409,0.0017,0.0132,0.0415,0.0398,-0.008173233,0.00224285,0.0231,0.002177735,0.032255
2009,9,23.901,12.54,0.232310024,0.0012,0.0118,0.0403,0.0391,-6.34E-05,0.000625481,0.0176,0.001912658,0.034978
2009,10,23.4023,25.35,0.232299261,0.0007,0.0114,0.042,0.0413,0.003145949,0.000963101,-0.0171,0.003898019,-0.019458
2009,11,22.9037,38.16,0.218104872,0.0005,0.0113,0.0406,0.0401,0.007464034,0.000707753,0.0208,0.002001332,0.057607
2009,12,22.405,50.97,0.216364517,0.0005,0.0111,0.0458,0.0453,0.010533821,-0.001761198,-0.0584,0.000933454,0.017346
2010,1,22.238,54.29,0.22411702,0.0006,0.0099,0.0441,0.0435,0.01335015,0.003417474,0.0264,0.001991705,-0.036781
2010,2,22.071,57.61,0.218518468,0.0011,0.0099,0.0441,0.043,0.0138627,0.000249207,0.0032,0.002373256,0.028014
2010,3,21.904,60.93,0.38187817,0.0015,0.01,0.0458,0.0443,0.026337232,0.004106284,-0.0179,0.000633437,0.05943
2010,4,21.9483,62.9867,0.376606129,0.0016,0.0096,0.0437,0.0421,0.026617051,0.001736885,0.0304,0.001793867,0.014957
2010,5,21.9927,65.0433,0.409002795,0.0016,0.0109,0.0407,0.0391,0.025682698,0.000775197,0.0437,0.008107791,-0.082337
2010,6,22.037,67.1,0.424176542,0.0012,0.0135,0.0376,0.0364,0.018726384,-0.000976267,0.0446,0.005591726,-0.055115
2010,7,22.1423,68.6867,0.396133553,0.0016,0.0129,0.0377,0.0361,0.015517815,0.000211043,0.0024,0.003348826,0.06862
2010,8,22.2477,70.2733,0.413981619,0.0016,0.0117,0.0327,0.0311,0.011120043,0.001380664,0.0702,0.002704607,-0.04784
2010,9,22.353,71.86,0.384305783,0.0015,0.0113,0.0341,0.0326,0.003239165,0.000581736,-0.0153,0.002337192,0.088751
2010,10,22.4783,73.69,0.372887286,0.0013,0.0104,0.0367,0.0354,0.007144769,0.001245199,-0.0317,0.001080044,0.037081
2010,11,22.6037,75.52,0.376694754,0.0014,0.0105,0.038,0.0366,0.014759639,0.000420646,-0.0137,0.001737916,-0.002571
2010,12,22.729,77.35,0.358100317,0.0014,0.0108,0.0414,0.04,0.012573506,0.001718441,-0.0388,0.00083212,0.065249
2011,1,22.963,78.67,0.348632224,0.0015,0.0105,0.0432,0.0417,0.015335882,0.00476323,-0.0196,0.00086324,0.022319
2011,2,23.197,79.99,0.339096574,0.0013,0.0093,0.0426,0.0413,0.015896537,0.004931365,0.0113,0.001065549,0.030251
2011,3,23.431,81.31,0.354269939,0.001,0.009,0.0429,0.0419,0.012454255,0.009751072,-0.0006,0.002347269,-0.000867
2011,4,23.7343,82.1633,0.340696801,0.0006,0.0086,0.0416,0.041,0.009363301,0.00643943,0.0199,0.000636542,0.028358
2011,5,24.0377,83.0167,0.347222189,0.0004,0.0082,0.0391,0.0387,0.009094734,0.004704188,0.0355,0.000934191,-0.013573
2011,6,24.341,83.87,0.351570039,0.0004,0.0076,0.0409,0.0405,0.01171812,-0.001070967,-0.0179,0.002294749,-0.018106
2011,7,24.621,84.9067,0.359418903,0.0004,0.0083,0.0378,0.0374,0.012368431,0.000886046,0.0422,0.001830759,-0.020982
2011,8,24.901,85.9433,0.375812522,0.0002,0.0099,0.0315,0.0313,0.012766928,0.002757589,0.0862,0.019222199,-0.056734
2011,9,25.181,86.98,0.399922847,0.0001,0.0118,0.0265,0.0264,0.013092446,0.001518462,0.0704,0.006915736,-0.071739
2011,10,25.5957,86.97,0.365077905,0.0002,0.0139,0.0291,0.0289,0.00792846,-0.002062683,-0.0306,0.007400881,0.107554
2011,11,26.0103,86.96,0.362329898,0.0001,0.0127,0.0273,0.0272,-0.00433557,-0.000843561,0.0251,0.007679543,-0.005552
2011,12,26.425,86.95,0.357232541,0.0001,0.0132,0.0255,0.0254,-0.006495091,-0.002466516,0.027,0.002764065,0.007613
2012,1,26.7343,87.48,0.345487303,0.0003,0.0138,0.0249,0.0246,-0.013070136,0.004400191,0.0002,0.000648156,0.044003
2012,2,27.0437,88.01,0.336973935,0.0009,0.0129,0.0272,0.0263,-0.014466842,0.004402974,-0.0196,0.000623691,0.040744
2012,3,27.353,88.54,0.346181967,0.0008,0.0124,0.0297,0.0289,-0.013773119,0.007594559,-0.0302,0.001155302,0.031282
2012,4,27.6753,88.3333,0.346140311,0.0008,0.0123,0.0268,0.026,-0.012404235,0.00302103,0.0409,0.001627534,-0.007237
2012,5,27.9977,88.1267,0.36904736,0.0009,0.0127,0.0221,0.0212,-0.016061539,-0.001173479,0.0643,0.001496093,-0.062433
2012,6,28.32,87.92,0.355103885,0.0009,0.0138,0.0233,0.0224,-0.019820145,-0.001466397,-0.0136,0.003437258,0.039888
2012,7,28.7433,87.4467,0.351593705,0.001,0.0147,0.0216,0.0206,-0.021091208,-0.001629786,0.0247,0.001552866,0.013096
2012,8,29.1667,86.9733,0.349387052,0.001,0.0143,0.0223,0.0213,-0.020535578,0.005565158,-0.0068,0.000727126,0.019938
2012,9,29.59,86.5,0.340382954,0.0011,0.0135,0.0235,0.0224,-0.018153082,0.004462212,-0.0146,0.001044683,0.023547
2012,10,30.1423,86.5033,0.349237122,0.001,0.0111,0.0238,0.0228,-0.01644329,-0.000388925,-0.0014,0.000925526,-0.019227
2012,11,30.6946,86.5067,0.351137531,0.0009,0.0101,0.0228,0.0219,-0.012810835,-0.004738087,0.0144,0.001902651,0.002154
2012,12,31.2469,86.51,0.349032443,0.0007,0.0098,0.0246,0.0239,-0.012258026,-0.002693065,-0.0202,0.001035712,0.005902
2013,1,31.5353,86.9067,0.329984027,0.0007,0.0093,0.0291,0.0284,-0.008679145,0.002957304,-0.0332,0.00090677,0.051024
2013,2,31.8236,87.3033,0.325431232,0.001,0.0095,0.0285,0.0275,-0.009525656,0.00819003,0.0114,0.001242766,0.010511
2013,3,32.1119,87.7,0.346129997,0.0009,0.0092,0.0287,0.0278,-0.009549838,0.002614509,-0.0062,0.000484499,0.036025
2013,4,32.4967,88.7833,0.340036254,0.0006,0.0086,0.0264,0.0258,-0.008668375,-0.00103964,0.0378,0.00168273,0.018482
2013,5,32.8815,89.8667,0.333832598,0.0004,0.0084,0.0309,0.0305,-0.004689718,0.001780408,-0.0629,0.00101556,0.020441
2013,6,33.2663,90.95,0.338444358,0.0005,0.0092,0.033,0.0325,0.000145598,0.002399708,-0.0285,0.002247641,-0.015262
2013,7,33.6455,92.09,0.325562565,0.0004,0.0098,0.0344,0.034,0.008390397,0.000393998,-0.0173,0.000502077,0.049287
2013,8,34.0247,93.23,0.340713327,0.0004,0.0088,0.0351,0.0347,0.010357496,0.001202932,-0.0079,0.000950438,-0.031638
2013,9,34.4039,94.37,0.333521485,0.0002,0.0083,0.0349,0.0347,0.010143778,0.001163005,0.0061,0.000622229,0.030064
2013,10,34.6,96.3133,0.324594825,0.0005,0.0078,0.0342,0.0337,0.009646756,-0.002575283,0.0128,0.001438361,0.044953
2013,11,34.796,98.2567,0.313685278,0.0007,0.0075,0.0361,0.0354,0.010345567,-0.002042424,-0.0236,0.000644417,0.028398
2013,12,34.992,100.2,0.304408126,0.0007,0.0076,0.0378,0.0371,0.012168529,-8.58E-05,-0.0207,0.000745536,0.024196
2014,1,35.4039,100.4167,0.321429277,0.0004,0.007,0.0342,0.0338,0.013791111,0.003720248,0.0548,0.001303569,-0.035731
2014,2,35.8158,100.6333,0.309163072,0.0005,0.0065,0.0339,0.0334,0.016617655,0.003697909,0.0074,0.001253563,0.043194
2014,3,36.2277,100.85,0.350616066,0.0005,0.0068,0.0337,0.0332,0.016463073,0.006440044,0.0063,0.000869064,0.006537
2014,4,36.612,101.6067,0.348011319,0.0003,0.0066,0.0326,0.0323,0.016696287,0.003296755,0.0181,0.001362664,0.005388
2014,5,36.9963,102.3633,0.345173256,0.0003,0.006,0.0309,0.0306,0.014026012,0.00349261,0.0279,0.000555193,0.020895
2014,6,37.3807,103.12,0.342928459,0.0004,0.0055,0.0313,0.0309,0.013931231,0.001862127,-0.0025,0.000281999,0.019048
2014,7,37.752,104.0667,0.348379852,0.0003,0.0057,0.031,0.0307,0.008472843,-0.000390194,0.0057,0.000949121,-0.015278
2014,8,38.1233,105.0133,0.337476204,0.0003,0.0061,0.0287,0.0284,0.00676993,-0.001670514,0.0369,0.000546197,0.037446
2014,9,38.4946,105.96,0.338576181,0.0002,0.0069,0.03,0.0298,0.008024088,0.000752569,-0.017,0.000721014,-0.015467
2014,10,38.8108,104.7433,0.331808365,0.0002,0.0077,0.0282,0.028,0.008068228,-0.002512278,0.03,0.002943964,0.0228
2014,11,39.127,103.5267,0.323661786,0.0002,0.0087,0.0264,0.0262,0.006925315,-0.005399418,0.0286,0.000150262,0.025159
2014,12,39.4431,102.31,0.323755672,0.0003,0.0095,0.0246,0.0243,0.005656006,-0.005670101,0.029,0.001992841,-0.004249
2015,1,39.8976,101.29,0.336168763,0.0003,0.0099,0.02,0.0197,0.000212963,-0.004705892,0.0709,0.002226648,-0.030468
2015,2,40.3521,100.27,0.318227291,0.0002,0.009,0.0238,0.0236,-0.003762537,0.004343045,-0.0523,0.00081352,0.054305
2015,3,40.8066,99.25,0.307454045,0.0003,0.009,0.023,0.0227,-0.006899835,0.005951722,0.0137,0.00172038,-0.016628
2015,4,41.1184,97.8033,0.30634421,0.0002,0.0096,0.0249,0.0247,-0.007084545,0.002032873,-0.025,0.000574338,0.008004
2015,5,41.4302,96.3567,0.303449953,0.0002,0.0091,0.0262,0.026,-0.007509575,0.005097232,-0.0159,0.000887003,0.010141
2015,6,41.742,94.91,0.310186833,0.0002,0.0094,0.0285,0.0283,-0.008098277,0.00350287,-0.0298,0.001052136,-0.02102
2015,7,41.9981,93.4933,0.308953265,0.0003,0.0105,0.0263,0.026,-0.008070176,6.70E-05,0.0329,0.001159778,0.020101
2015,8,42.2543,92.0767,0.330670987,0.0007,0.0115,0.0264,0.0257,-0.009535037,-0.001416276,0.0012,0.005846996,-0.062433
2015,9,42.5104,90.66,0.335611955,0.0002,0.0127,0.0253,0.0251,-0.012988819,-0.001556757,0.0174,0.004053479,-0.026258
2015,10,42.8029,89.2833,0.309413628,0.0002,0.0139,0.0259,0.0257,-0.016202898,-0.000449684,-0.0053,0.001618901,0.082049
2015,11,43.0954,87.9067,0.308429158,0.0012,0.014,0.0265,0.0253,-0.017804336,-0.00211068,-0.0065,0.001118722,0.000817
2015,12,43.3879,86.53,0.313648814,0.0023,0.0149,0.0268,0.0245,-0.021604409,-0.003417096,-0.0022,0.002838566,-0.017076
2016,1,43.5506,86.5,0.33191063,0.0026,0.0145,0.0236,0.021,-0.020256429,0.001653102,0.0476,0.004301248,-0.05025
2016,2,43.7133,86.47,0.330901825,0.0031,0.0138,0.0217,0.0186,-0.024017794,0.000823077,0.0294,0.002601507,-0.004457
2016,3,43.8759,86.44,0.327954791,0.0029,0.0131,0.0218,0.0189,-0.022993399,0.004306,-0.0003,0.001274177,0.065146
2016,4,44.0706,86.6,0.326320889,0.0023,0.0117,0.0223,0.02,-0.023548638,0.004741068,-0.0053,0.000817784,0.002576
2016,5,44.2652,86.76,0.326072119,0.0027,0.0103,0.0219,0.0192,-0.026999621,0.004045791,0.0082,0.000995577,0.015886
2016,6,44.4599,86.92,0.323475362,0.0027,0.0103,0.0179,0.0152,-0.028676835,0.003284366,0.059,0.002864437,0.001002
2016,7,44.6485,87.6433,0.314661159,0.003,0.0094,0.0175,0.0145,-0.031660935,-0.001618136,0.0081,0.000477647,0.035324
2016,8,44.8371,88.3667,0.315197425,0.003,0.0092,0.0186,0.0156,-0.03072007,0.00091843,-0.014,0.000279168,-0.001396
2016,9,45.0257,89.09,0.316793887,0.0029,0.009,0.0196,0.0167,-0.032544433,0.002403996,-0.0124,0.001673103,-0.001033
2016,10,45.2507,90.91,0.319687782,0.0033,0.0087,0.022,0.0187,-0.028996804,0.001246749,-0.0314,0.00036407,-0.019206
2016,11,45.4756,92.73,0.303285786,0.0045,0.0085,0.0267,0.0222,-0.02736059,-0.001555461,-0.0599,0.000946368,0.033007
2016,12,45.7006,94.55,0.293479097,0.0051,0.0077,0.0272,0.0221,-0.025011507,0.000327321,-0.0057,0.000524022,0.017569
2017,1,45.9279,96.4633,0.29197965,0.0051,0.0074,0.0278,0.0227,-0.022561566,0.005827728,0.0043,0.000335592,0.018311
2017,2,46.1552,98.3767,0.278677833,0.0052,0.0069,0.027,0.0218,-0.018620719,0.003146117,0.0137,0.000223899,0.037052
2017,3,46.3824,100.29,0.281598889,0.0074,0.0067,0.0274,0.02,-0.0161491,0.000812798,-0.004,0.000575306,0.000055
2017,4,46.6613,101.5333,0.277870026,0.008,0.007,0.0265,0.0185,-0.015495221,0.002965533,0.0145,0.000390542,0.009439
2017,5,46.9402,102.7767,0.276968767,0.0089,0.007,0.0256,0.0167,-0.010100856,0.000854722,0.0158,0.000503081,0.01192
2017,6,47.219,104.02,0.272545228,0.0098,0.0069,0.0258,0.016,-0.009702567,0.000907111,-0.001,0.000447563,0.004364
2017,7,47.537,105.04,0.265803679,0.0107,0.0069,0.0262,0.0155,-0.013104177,-0.000689923,-0.0027,0.000258862,0.019162
2017,8,47.8551,106.06,0.265113614,0.0101,0.0068,0.0242,0.0141,-0.012138511,0.002994452,0.0289,0.000753374,-0.000324
2017,9,48.1731,107.08,0.259706167,0.0103,0.0067,0.0259,0.0156,-0.011012258,0.005294906,-0.0205,0.000257243,0.018742
2017,10,48.4261,108.0133,0.248906199,0.0107,0.0072,0.0261,0.0154,-0.012343037,-0.000632042,-0.0013,0.000218147,0.023006
2017,11,48.679,108.9467,0.239727101,0.0123,0.007,0.026,0.0137,-0.012205417,2.43E-05,0.0036,0.00035533,0.02886
2017,12,48.932,109.88,0.235393343,0.0132,0.0071,0.0254,0.0122,-0.019900371,-0.000587832,0.0102,0.000244097,0.009851
2018,1,50.003,115.44,0.222519149,0.0141,0.0071,0.0284,0.0143,-0.01906352,0.005447746,-0.0315,0.00077427,0.057018
2018,2,50.003,115.44,0.232478066,0.0157,0.0069,0.0301,0.0144,-0.018342389,0.00453469,-0.0224,0.005361628,-0.039702
2018,3,50.003,115.44,0.247353534,0.017,0.0077,0.0285,0.0115,-0.018248306,0.002261126,0.0259,0.003246732,-0.027092
2018,4,50.9903,122.48,0.246738916,0.0176,0.0082,0.03,0.0124,-0.0186283,0.003975092,-0.0177,0.002362681,0.002656
2018,5,50.9903,122.48,0.244185309,0.0186,0.0083,0.0289,0.0103,-0.018956545,0.004158917,0.0164,0.000922724,0.021317
2018,6,50.9903,122.48,0.245638364,0.019,0.0087,0.0291,0.0101,-0.022127783,0.001593876,0.0007,0.000622858,0.005507
2018,7,52.339,130.39,0.234583705,0.0196,0.0092,0.0302,0.0106,-0.01711954,6.75E-05,-0.0131,0.000654423,0.03597
2018,8,52.339,130.39,0.229617977,0.0203,0.0089,0.0293,0.009,-0.021495399,0.000555542,0.0152,0.000471241,0.030647
2018,9,52.339,130.39,0.225335232,0.0213,0.009,0.0334,0.0121,-0.020870505,0.001162025,-0.0518,0.000230075,0.003758
2018,10,53.7482,132.39,0.237380411,0.0225,0.0093,0.0352,0.0127,-0.0212222,0.001766764,-0.0204,0.004577565,-0.069492
2018,11,53.7482,132.39,0.233451408,0.0233,0.01,0.0317,0.0084,-0.024592661,-0.003349349,0.0505,0.002837615,0.017477
2018,12,53.7482,132.39,0.255578166,0.0237,0.0111,0.0284,0.0047,-0.019217449,-0.003193963,0.0481,0.006793079,-0.092457